STATS 220
…
.left-column[
.center[<img src="https://raw.githubusercontent.com/rstudio/hex-stickers/master/PNG/readr.png" width="60%">]
]
.right-column[
## Reading comma delimited files

```r
library(readr) # library(tidyverse)
pisa <- read_csv("data/pisa/pisa-student.csv", n_max = 2929621)
pisa
```

```
#> # A tibble: 2,929,621 x 22
#>    year country school_id student_id mother_educ father_educ
#>   <dbl> <chr>       <dbl>      <dbl> <lgl>       <lgl>      
#> 1  2000 ALB          1001          1 NA          NA         
#> 2  2000 ALB          1001          3 NA          NA         
#> 3  2000 ALB          1001          6 NA          NA         
#> 4  2000 ALB          1001          8 NA          NA         
#> 5  2000 ALB          1001         11 NA          NA         
#> 6  2000 ALB          1001         12 NA          NA         
#> # … with 2,929,615 more rows, and 16 more variables:
#> #   gender <chr>, computer <lgl>, internet <chr>,
#> #   math <dbl>, read <dbl>, science <dbl>, stu_wgt <dbl>,
#> #   desk <chr>, room <chr>, dishwasher <chr>,
#> #   television <chr>, computer_n <chr>, car <chr>,
#> #   book <chr>, wealth <dbl>, escs <dbl>
```
…
```r
library(readxl)
time_use <- read_xlsx("data/time-use-oecd.xlsx")
time_use
```

```
#> # A tibble: 461 x 3
#>   Country   Category  `Time (minutes)`
#>   <chr>     <chr>                <dbl>
#> 1 Australia Paid work             211.
#> 2 Austria   Paid work             280.
#> 3 Belgium   Paid work             194.
#> 4 Canada    Paid work             269.
#> 5 Denmark   Paid work             200.
#> 6 Estonia   Paid work             231.
#> # … with 455 more rows
```
…
---

.left-column[
## {jsonlite}
]
.right-column[
## Reading json files as tibbles

```r
movies_tbl <- as_tibble(read_json(url, simplifyVector = TRUE))
movies_tbl
```

```
#> # A tibble: 3,201 x 16
#>   Title                US_Gross Worldwide_Gross US_DVD_Sales
#>   <chr>                   <int>           <dbl>        <int>
#> 1 The Land Girls         146083          146083           NA
#> 2 First Love, Last Ri…    10876           10876           NA
#> 3 I Married a Strange…   203134          203134           NA
#> 4 Let's Talk About Sex   373615          373615           NA
#> 5 Slam                  1009819         1087521           NA
#> 6 Mississippi Mermaid     24551         2624551           NA
#> # … with 3,195 more rows, and 12 more variables:
#> #   Production_Budget <int>, Release_Date <chr>,
#> #   MPAA_Rating <chr>, Running_Time_min <int>,
#> #   Distributor <chr>, Source <chr>, Major_Genre <chr>,
#> #   Creative_Type <chr>, Director <chr>,
#> #   Rotten_Tomatoes_Rating <int>, IMDB_Rating <dbl>,
#> #   IMDB_Votes <int>
```
…
