STATS 220
…
---

## numbers vs plots

.pull-left[

```r
dino
```

```
#> # A tibble: 142 x 2
#>       x     y
#>   <dbl> <dbl>
#> 1  55.4  97.2
#> 2  51.5  96.0
#> 3  46.2  94.5
#> 4  42.8  91.4
#> 5  40.8  88.3
#> 6  38.7  84.9
#> # … with 136 more rows
```
…
```r
sci_tbl0
```

```
#> # A tibble: 63 x 1
#>   dept   
#>   <chr>  
#> 1 Physics
#> 2 Physics
#> 3 Physics
#> 4 Physics
#> 5 Physics
#> 6 Physics
#> # … with 57 more rows
```
…
