STATS 220
…
<img src="https://github.com/rstudio/hex-stickers/raw/master/SVG/pipe.svg" height="420px">

---

## Time use in OECD

```r
library(readxl)
library(tidyverse)
time_use_raw <- read_xlsx("data/time-use-oced.xlsx")
time_use_raw
```

```
#> # A tibble: 461 x 3
#>   Country   Category  `Time (minutes)`
#>   <chr>     <chr>                <dbl>
#> 1 Australia Paid work             211.
#> 2 Austria   Paid work             280.
#> 3 Belgium   Paid work             194.
#> 4 Canada    Paid work             269.
#> 5 Denmark   Paid work             200.
#> 6 Estonia   Paid work             231.
#> # … with 455 more rows
```
…
---

```r
time_use <- time_use_raw %>% 
  rename(
    country = Country, 
    category = Category, 
    minutes = `Time (minutes)`)
time_use
```

```
#> # A tibble: 461 x 3
#>   country   category  minutes
#>   <chr>     <chr>       <dbl>
#> 1 Australia Paid work    211.
#> 2 Austria   Paid work    280.
#> 3 Belgium   Paid work    194.
#> 4 Canada    Paid work    269.
#> 5 Denmark   Paid work    200.
#> 6 Estonia   Paid work    231.
#> # … with 455 more rows
```
…
```r
time_use %>% 
  distinct(country, category)
```

```
#> # A tibble: 461 x 2
#>   country   category 
#>   <chr>     <chr>    
#> 1 Australia Paid work
#> 2 Austria   Paid work
#> 3 Belgium   Paid work
#> 4 Canada    Paid work
#> 5 Denmark   Paid work
#> 6 Estonia   Paid work
#> # … with 455 more rows
```
…
.left-column[
## Verbs
### - rowwise
]
.right-column[
* `group_by()`: group by one or more variables

```r
time_use %>% 
  group_by(country)
```

```
#> # A tibble: 461 x 3
*#> # Groups:   country [33]
#>   country   category  minutes
#>   <chr>     <chr>       <dbl>
#> 1 Australia Paid work    211.
#> 2 Austria   Paid work    280.
#> 3 Belgium   Paid work    194.
#> 4 Canada    Paid work    269.
#> 5 Denmark   Paid work    200.
#> 6 Estonia   Paid work    231.
#> # … with 455 more rows
```
…
.left-column[
## Verbs
### - rowwise
]
.right-column[
* `group_by()`: use in conjunction with other verbs

```r
time_use %>% 
  group_by(country) %>% 
  slice(1:5)
```

```
#> # A tibble: 165 x 3
*#> # Groups:   country [33]
#>   country   category                   minutes
#>   <chr>     <chr>                        <dbl>
#> 1 Australia Paid work                    211. 
#> 2 Australia Education                     27.0
#> 3 Australia Care for household members    44.5
#> 4 Australia Housework                    132. 
#> 5 Australia Shopping                      29.0
#> 6 Austria   Paid work                    280. 
#> # … with 159 more rows
```
…
.left-column[
## Verbs
### - rowwise
]
.right-column[
* `slice()` shortcuts: `slice_head()` & `slice_tail()`

```r
time_use %>% 
  group_by(country) %>% 
  slice_head(n = 5)
```

```
#> # A tibble: 165 x 3
*#> # Groups:   country [33]
#>   country   category                   minutes
#>   <chr>     <chr>                        <dbl>
#> 1 Australia Paid work                    211. 
#> 2 Australia Education                     27.0
#> 3 Australia Care for household members    44.5
#> 4 Australia Housework                    132. 
#> 5 Australia Shopping                      29.0
#> 6 Austria   Paid work                    280. 
#> # … with 159 more rows
```
…
```r
time_use %>% 
  group_by(country) %>% 
  slice_head(n = 5) %>% 
  ungroup()
```

```
#> # A tibble: 165 x 3
#>   country   category                   minutes
#>   <chr>     <chr>                        <dbl>
#> 1 Australia Paid work                    211. 
#> 2 Australia Education                     27.0
#> 3 Australia Care for household members    44.5
#> 4 Australia Housework                    132. 
#> 5 Australia Shopping                      29.0
#> 6 Austria   Paid work                    280. 
#> # … with 159 more rows
```
…
.left-column[
## Verbs
### - rowwise
]
.right-column[
* `arrange()`: arrange rows by columns

```r
time_use %>% 
  arrange(minutes)
```

```
#> # A tibble: 461 x 3
#>   country   category                   minutes
#>   <chr>     <chr>                        <dbl>
#> 1 Japan     Care for household members    0   
#> 2 Lithuania Attending events              1.35
#> 3 China     Attending events              2.00
#> 4 Turkey    Attending events              2.58
#> 5 Poland    Attending events              2.81
#> 6 Korea     Attending events              4.45
#> # … with 455 more rows
```
…
.left-column[
## Verbs
### - rowwise
]
.right-column[
* `arrange()`: arrange rows by columns

```r
time_use %>% 
  arrange(desc(minutes)) # -minutes
```

```
#> # A tibble: 461 x 3
#>   country      category minutes
#>   <chr>        <chr>      <dbl>
#> 1 South Africa Sleep       553.
#> 2 China        Sleep       542.
#> 3 Estonia      Sleep       530.
#> 4 India        Sleep       528.
#> 5 USA          Sleep       528.
#> 6 New Zealand  Sleep       526 
#> # … with 455 more rows
```
…
.left-column[
## Verbs
### - rowwise
]
.right-column[
* `arrange()`: arrange rows by columns

```r
time_use %>% 
  arrange(country, desc(minutes))
```

```
#> # A tibble: 461 x 3
#>   country   category                 minutes
#>   <chr>     <chr>                      <dbl>
#> 1 Australia Sleep                      512. 
#> 2 Australia Paid work                  211. 
#> 3 Australia TV and Radio               140. 
#> 4 Australia Housework                  132. 
#> 5 Australia Eating and drinking         89.1
#> 6 Australia Other leisure activities    76.1
#> # … with 455 more rows
```
…
.left-column[
## Verbs
### - rowwise
]
.right-column[
* `filter()`: subset rows using columns

```r
time_use %>% 
  group_by(country) %>% 
  filter(minutes == max(minutes))
```

```
#> # A tibble: 33 x 3
#> # Groups:   country [33]
#>   country   category minutes
#>   <chr>     <chr>      <dbl>
#> 1 Australia Sleep       512.
#> 2 Austria   Sleep       498.
#> 3 Belgium   Sleep       513.
#> 4 Canada    Sleep       520 
#> 5 Denmark   Sleep       489.
#> 6 Estonia   Sleep       530.
#> # … with 27 more rows
```
…
.left-column[
## Verbs
### - rowwise
]
.right-column[
* `filter()`: subset rows using columns

```r
an <- c("Australia", "New Zealand")
time_use %>% 
  filter(country %in% an)
```

```
#> # A tibble: 28 x 3
#>   country     category                   minutes
#>   <chr>       <chr>                        <dbl>
#> 1 Australia   Paid work                    211. 
#> 2 New Zealand Paid work                    241. 
#> 3 Australia   Education                     27.0
#> 4 New Zealand Education                     29  
#> 5 Australia   Care for household members    44.5
#> 6 New Zealand Care for household members    30  
#> # … with 22 more rows
```
…
.left-column[
## Verbs
### - rowwise
]
.right-column[
* `filter()`: subset rows using columns

```r
time_use %>% 
  filter(!(country %in% an))
```

```
#> # A tibble: 433 x 3
#>   country category  minutes
#>   <chr>   <chr>       <dbl>
#> 1 Austria Paid work    280.
#> 2 Belgium Paid work    194.
#> 3 Canada  Paid work    269.
#> 4 Denmark Paid work    200.
#> 5 Estonia Paid work    231.
#> 6 Finland Paid work    200.
#> # … with 427 more rows
```
…
.left-column[
## Verbs
### - rowwise
]
.right-column[
* `filter()`: subset rows using columns

```r
time_use %>% 
  filter(country %in% an | minutes > 30)
```

```
#> # A tibble: 337 x 3
#>   country   category  minutes
#>   <chr>     <chr>       <dbl>
#> 1 Australia Paid work    211.
#> 2 Austria   Paid work    280.
#> 3 Belgium   Paid work    194.
#> 4 Canada    Paid work    269.
#> 5 Denmark   Paid work    200.
#> 6 Estonia   Paid work    231.
#> # … with 331 more rows
```
…
