STATS 220
…
---

class: middle

## Case study: COVID-19

```r
covid19 <- read_csv("data/covid19-daily-cases.csv")
covid19
```

```
#> # A tibble: 15,677 x 3
#>   country_region date       confirmed
#>   <chr>          <date>         <dbl>
#> 1 Afghanistan    2020-03-01         1
#> 2 Afghanistan    2020-03-02         1
#> 3 Afghanistan    2020-03-03         2
#> 4 Afghanistan    2020-03-04         4
#> 5 Afghanistan    2020-03-05         4
#> 6 Afghanistan    2020-03-06         4
#> # … with 15,671 more rows
```
…
```r
covid19_rel <- covid19 %>% 
* mutate(confirmed = na_if(confirmed, 0)) %>%
  group_by(country_region) %>% 
  mutate(days = as.numeric(date - min(date))) %>% 
  ungroup()
covid19_rel
```

```
#> # A tibble: 15,677 x 4
#>   country_region date       confirmed  days
#>   <chr>          <date>         <dbl> <dbl>
#> 1 Afghanistan    2020-03-01         1     0
#> 2 Afghanistan    2020-03-02         1     1
#> 3 Afghanistan    2020-03-03         2     2
#> 4 Afghanistan    2020-03-04         4     3
#> 5 Afghanistan    2020-03-05         4     4
#> 6 Afghanistan    2020-03-06         4     5
#> # … with 15,671 more rows
```
…
