STATS 220
…
## Beyond <i class="fab fa-r-project"></i>: language engines

````r
```{r db}
library(RSQLite)
db <- dbConnect(SQLite(), dbname = "data/pisa/pisa-student.db")
```

*```{sql query, connection = db, output.var = "pisa18"}
SELECT * FROM pisa WHERE year = 2018
```
````

```
#> # A tibble: 612,004 x 22
#>    year country school_id student_id mother_educ father_educ
#>   <dbl> <chr>   <chr>     <chr>      <chr>       <chr>      
#> 1  2018 ALB     800002    800251     ISCED 3A    ISCED 3A   
#> 2  2018 ALB     800002    800402     ISCED 2     ISCED 2    
#> 3  2018 ALB     800002    801902     ISCED 2     ISCED 2    
#> 4  2018 ALB     800002    803546     ISCED 2     ISCED 2    
#> 5  2018 ALB     800002    804776     ISCED 2     ISCED 3A   
#> 6  2018 ALB     800002    804825     ISCED 2     ISCED 2    
#> # … with 611,998 more rows, and 16 more variables:
#> #   gender <chr>, computer <chr>, internet <chr>,
#> #   math <dbl>, read <dbl>, science <dbl>, stu_wgt <dbl>,
#> #   desk <chr>, room <chr>, dishwasher <chr>,
#> #   television <chr>, computer_n <chr>, car <chr>,
#> #   book <chr>, wealth <dbl>, escs <dbl>
```
…
