STATS 220
…
.left-column[
.center[<img src="https://github.com/juliasilge/tidytext/raw/master/man/figures/tidytext.png">]
### - tokenise
]
.right-column[
## Unigram

```r
library(tidytext)
text_tbl %>%
  unnest_tokens(output = word, input = text)
```

```
#> # A tibble: 49 x 2
#>    line word     
#>   <int> <chr>    
#> 1     1 this     
#> 2     1 will     
#> 3     1 be       
#> 4     1 an       
#> 5     1 uncertain
#> 6     1 time     
#> # … with 43 more rows
```
…
.left-column[
.center[<img src="https://github.com/juliasilge/tidytext/raw/master/man/figures/tidytext.png">]
### - tokenise
]
.right-column[
## Unigram

```r
text_tbl %>%
  unnest_tokens(output = word, input = text) %>% 
  count(word, sort = TRUE)
```

```
#> # A tibble: 32 x 2
#>   word      n
#>   <chr> <int>
#> 1 my        7
#> 2 love      5
#> 3 i         3
#> 4 your      3
#> 5 can       2
#> 6 in        2
#> # … with 26 more rows
```
…
---

.left-column[
.center[<img src="https://github.com/juliasilge/tidytext/raw/master/man/figures/tidytext.png">]
### - tokenise
]
.right-column[

```r
text_tbl %>%
  unnest_characters(output = word, input = text)
```

```
#> # A tibble: 171 x 2
#>    line word 
#>   <int> <chr>
#> 1     1 t    
#> 2     1 h    
#> 3     1 i    
#> 4     1 s    
#> 5     1 w    
#> 6     1 i    
#> # … with 165 more rows
```
…
.left-column[
.center[<img src="https://github.com/juliasilge/tidytext/raw/master/man/figures/tidytext.png">]
### - tokenise
]
.right-column[
## N-gram

```r
text_tbl %>%
  unnest_ngrams(output = word, input = text, n = 2)
```

```
#> # A tibble: 43 x 2
#>    line word          
#>   <int> <chr>         
#> 1     1 this will     
#> 2     1 will be       
#> 3     1 be an         
#> 4     1 an uncertain  
#> 5     1 uncertain time
#> 6     1 time for      
#> # … with 37 more rows
```
…
.left-column[
.center[<img src="https://github.com/juliasilge/tidytext/raw/master/man/figures/tidytext.png">]
### - import
]
.right-column[
## sentiment analysis

```r
user_reviews <- read_tsv(
  "data/animal-crossing/user_reviews.tsv")
user_reviews
```

```
#> # A tibble: 2,999 x 4
#>   grade user_name   text                          date      
#>   <dbl> <chr>       <chr>                         <date>    
#> 1     4 mds27272    My gf started playing before… 2020-03-20
#> 2     5 lolo2178    While the game itself is gre… 2020-03-20
#> 3     0 Roachant    My wife and I were looking f… 2020-03-20
#> 4     0 Houndf      We need equal values and opp… 2020-03-20
#> 5     0 ProfessorF… BEWARE!  If you have multipl… 2020-03-20
#> 6     0 tb726       The limitation of one island… 2020-03-20
#> # … with 2,993 more rows
```
…
```r
user_reviews_words <- user_reviews %>% 
  mutate(text = str_remove(text, "Expand$")) %>% 
  unnest_tokens(output = word, input = text)
user_reviews_words
```

```
#> # A tibble: 362,729 x 4
#>   grade user_name date       word   
#>   <dbl> <chr>     <date>     <chr>  
#> 1     4 mds27272  2020-03-20 my     
#> 2     4 mds27272  2020-03-20 gf     
#> 3     4 mds27272  2020-03-20 started
#> 4     4 mds27272  2020-03-20 playing
#> 5     4 mds27272  2020-03-20 before 
#> 6     4 mds27272  2020-03-20 me     
#> # … with 362,723 more rows
```
…
```r
user_reviews_words %>%
  count(word, sort = TRUE)
```

```
#> # A tibble: 13,454 x 2
#>   word      n
#>   <chr> <int>
#> 1 the   17739
#> 2 to    11857
#> 3 game   8769
#> 4 and    8740
#> 5 a      8330
#> 6 i      7211
#> # … with 13,448 more rows
```
…
```r
get_stopwords()
```

```
#> # A tibble: 175 x 2
#>   word   lexicon 
#>   <chr>  <chr>   
#> 1 i      snowball
#> 2 me     snowball
#> 3 my     snowball
#> 4 myself snowball
#> 5 we     snowball
#> 6 our    snowball
#> # … with 169 more rows
```
…
```r
stopwords_smart <- get_stopwords(source = "smart")
user_reviews_smart <- user_reviews_words %>%
  anti_join(stopwords_smart)
user_reviews_smart
```

```
#> # A tibble: 145,444 x 4
#>   grade user_name date       word   
#>   <dbl> <chr>     <date>     <chr>  
#> 1     4 mds27272  2020-03-20 gf     
#> 2     4 mds27272  2020-03-20 started
#> 3     4 mds27272  2020-03-20 playing
#> 4     4 mds27272  2020-03-20 option 
#> 5     4 mds27272  2020-03-20 create 
#> 6     4 mds27272  2020-03-20 island 
#> # … with 145,438 more rows
```
…
```r
get_sentiments("afinn")
```

```
#> # A tibble: 2,477 x 2
#>   word       value
#>   <chr>      <dbl>
#> 1 abandon       -2
#> 2 abandoned     -2
#> 3 abandons      -2
#> 4 abducted      -2
#> 5 abduction     -2
#> 6 abductions    -2
#> # … with 2,471 more rows
```
]
.pull-right[

```r
get_sentiments("loughran")
```

```
#> # A tibble: 4,150 x 2
#>   word         sentiment
#>   <chr>        <chr>    
#> 1 abandon      negative 
#> 2 abandoned    negative 
#> 3 abandoning   negative 
#> 4 abandonment  negative 
#> 5 abandonments negative 
#> 6 abandons     negative 
#> # … with 4,144 more rows
```
…
```r
sentiments_bing <- get_sentiments("bing")
sentiments_bing
```

```
#> # A tibble: 6,786 x 2
#>   word       sentiment
#>   <chr>      <chr>    
#> 1 2-faces    negative 
#> 2 abnormal   negative 
#> 3 abolish    negative 
#> 4 abominable negative 
#> 5 abominably negative 
#> 6 abominate  negative 
#> # … with 6,780 more rows
```
…
```r
user_reviews_sentiments <- user_reviews_words %>%
  inner_join(sentiments_bing) %>%
  count(sentiment, word, sort = TRUE)
user_reviews_sentiments
```

```
#> # A tibble: 1,622 x 3
#>   sentiment word         n
#>   <chr>     <chr>    <int>
#> 1 positive  like      1357
#> 2 positive  fun        760
#> 3 positive  great      661
#> 4 positive  progress   556
#> 5 positive  good       486
#> 6 positive  enjoy      405
#> # … with 1,616 more rows
```
…
