STATS 220
…
---

## Keep calm, and import CSVs one by one

```r
library(tidyverse) # library(purrr)
covid_0301 <- read_csv("https://github.com/CSSEGISandData/COVID-19/raw/master/csse_covid_19_data/csse_covid_19_daily_reports/03-01-2020.csv")
covid_0302 <- read_csv("https://github.com/CSSEGISandData/COVID-19/raw/master/csse_covid_19_data/csse_covid_19_daily_reports/03-02-2020.csv")
covid_0303 <- read_csv("https://github.com/CSSEGISandData/COVID-19/raw/master/csse_covid_19_data/csse_covid_19_daily_reports/03-03-2020.csv")
(covid_03 <- bind_rows(covid_0301, covid_0302, covid_0303))
```

```
#> # A tibble: 420 x 8
#>   `Province/State` `Country/Region` `Last Update`      
#>   <chr>            <chr>            <dttm>             
#> 1 Hubei            Mainland China   2020-03-01 10:13:19
#> 2 <NA>             South Korea      2020-03-01 23:43:03
#> 3 <NA>             Italy            2020-03-01 23:23:02
#> 4 Guangdong        Mainland China   2020-03-01 14:13:18
#> 5 Henan            Mainland China   2020-03-01 14:13:18
#> 6 Zhejiang         Mainland China   2020-03-01 10:13:33
#> # … with 414 more rows, and 5 more variables:
#> #   Confirmed <dbl>, Deaths <dbl>, Recovered <dbl>,
#> #   Latitude <dbl>, Longitude <dbl>
```

---

## Data is changing

```r
covid_1231 <- read_csv("https://github.com/CSSEGISandData/COVID-19/raw/master/csse_covid_19_data/csse_covid_19_daily_reports/12-31-2020.csv")
covid_1231
```

```
#> # A tibble: 3,980 x 14
#>    FIPS Admin2 Province_State Country_Region     
#>   <dbl> <chr>  <chr>          <chr>              
#> 1    NA <NA>   <NA>           Afghanistan        
#> 2    NA <NA>   <NA>           Albania            
#> 3    NA <NA>   <NA>           Algeria            
#> 4    NA <NA>   <NA>           Andorra            
#> 5    NA <NA>   <NA>           Angola             
#> 6    NA <NA>   <NA>           Antigua and Barbuda
#> # … with 3,974 more rows, and 10 more variables:
#> #   Last_Update <dttm>, Lat <dbl>, Long_ <dbl>,
#> #   Confirmed <dbl>, Deaths <dbl>, Recovered <dbl>,
#> #   Active <dbl>, Combined_Key <chr>, Incident_Rate <dbl>,
#> #   Case_Fatality_Ratio <dbl>
```
…
---

## .large[.large[.brown[2 & 3]]] read data and standardise column names

```r
read_covid19 <- function(url) {
  data <- read_csv(url, 
    col_types = cols(Last_Update = "_", `Last Update` = "_"))
  rename_with(data, janitor::make_clean_names)
}
read_covid19(urls[1])
```

```
#> # A tibble: 126 x 7
#>   province_state country_region confirmed deaths recovered
#>   <chr>          <chr>              <dbl>  <dbl>     <dbl>
#> 1 Hubei          Mainland China     66907   2761     31536
#> 2 <NA>           South Korea         3736     17        30
#> 3 <NA>           Italy               1694     34        83
#> 4 Guangdong      Mainland China      1349      7      1016
#> 5 Henan          Mainland China      1272     22      1198
#> 6 Zhejiang       Mainland China      1205      1      1046
#> # … with 120 more rows, and 2 more variables:
#> #   latitude <dbl>, longitude <dbl>
```
…
.left-column[
.center[[<img src="https://raw.githubusercontent.com/rstudio/hex-stickers/master/PNG/purrr.png" width="60%">](https://purrr.tidyverse.org)]
### - `map()`
]
.right-column[
`map(.x, .f, ...)` for every element of .brown[`.x`], apply .brown[`.f`]
* always returns a list 

```r
covid19_lst <- map(urls, read_covid19)
covid19_lst[[length(covid19_lst)]]
```

```
#> # A tibble: 3,980 x 13
#>    fips admin2 province_state country_region      lat   long
#>   <dbl> <chr>  <chr>          <chr>             <dbl>  <dbl>
#> 1    NA <NA>   <NA>           Afghanistan        33.9  67.7 
#> 2    NA <NA>   <NA>           Albania            41.2  20.2 
#> 3    NA <NA>   <NA>           Algeria            28.0   1.66
#> 4    NA <NA>   <NA>           Andorra            42.5   1.52
#> 5    NA <NA>   <NA>           Angola            -11.2  17.9 
#> 6    NA <NA>   <NA>           Antigua and Barb…  17.1 -61.8 
#> # … with 3,974 more rows, and 7 more variables:
#> #   confirmed <dbl>, deaths <dbl>, recovered <dbl>,
#> #   active <dbl>, combined_key <chr>, incident_rate <dbl>,
#> #   case_fatality_ratio <dbl>
```
…
---

.left-column[
.center[[<img src="https://raw.githubusercontent.com/rstudio/hex-stickers/master/PNG/purrr.png" width="60%">](https://purrr.tidyverse.org)]
### - `map()`
]
.right-column[
## Bind multiple tibbles by row

```r
bind_rows(covid19_lst)
```

```
#> # A tibble: 1,069,141 x 16
#>   province_state country_region confirmed deaths recovered
#>   <chr>          <chr>              <dbl>  <dbl>     <dbl>
#> 1 Hubei          Mainland China     66907   2761     31536
#> 2 <NA>           South Korea         3736     17        30
#> 3 <NA>           Italy               1694     34        83
#> 4 Guangdong      Mainland China      1349      7      1016
#> 5 Henan          Mainland China      1272     22      1198
#> 6 Zhejiang       Mainland China      1205      1      1046
#> # … with 1,069,135 more rows, and 11 more variables:
#> #   latitude <dbl>, longitude <dbl>, fips <dbl>,
#> #   admin2 <chr>, lat <dbl>, long <dbl>, active <dbl>,
#> #   combined_key <chr>, incidence_rate <dbl>,
#> #   case_fatality_ratio <dbl>, incident_rate <dbl>
```
…
---

.left-column[
.center[[<img src="https://raw.githubusercontent.com/rstudio/hex-stickers/master/PNG/purrr.png" width="60%">](https://purrr.tidyverse.org)]
### - `map()`
]
.right-column[
## Hmm, where are the dates?

```r
bind_rows(covid19_lst)
```

```
#> # A tibble: 1,069,141 x 16
#>   province_state country_region confirmed deaths recovered
#>   <chr>          <chr>              <dbl>  <dbl>     <dbl>
#> 1 Hubei          Mainland China     66907   2761     31536
#> 2 <NA>           South Korea         3736     17        30
#> 3 <NA>           Italy               1694     34        83
#> 4 Guangdong      Mainland China      1349      7      1016
#> 5 Henan          Mainland China      1272     22      1198
#> 6 Zhejiang       Mainland China      1205      1      1046
#> # … with 1,069,135 more rows, and 11 more variables:
#> #   latitude <dbl>, longitude <dbl>, fips <dbl>,
#> #   admin2 <chr>, lat <dbl>, long <dbl>, active <dbl>,
#> #   combined_key <chr>, incidence_rate <dbl>,
#> #   case_fatality_ratio <dbl>, incident_rate <dbl>
```
…
```r
*covid19_lst <- map2(urls, dates,
  ~ read_covid19(.x) %>% mutate(date = .y))
bind_rows(covid19_lst)
```

```
#> # A tibble: 1,069,141 x 17
#>   province_state country_region confirmed deaths recovered
#>   <chr>          <chr>              <dbl>  <dbl>     <dbl>
#> 1 Hubei          Mainland China     66907   2761     31536
#> 2 <NA>           South Korea         3736     17        30
#> 3 <NA>           Italy               1694     34        83
#> 4 Guangdong      Mainland China      1349      7      1016
#> 5 Henan          Mainland China      1272     22      1198
#> 6 Zhejiang       Mainland China      1205      1      1046
#> # … with 1,069,135 more rows, and 12 more variables:
#> #   latitude <dbl>, longitude <dbl>, fips <dbl>,
#> #   admin2 <chr>, lat <dbl>, long <dbl>, active <dbl>,
#> #   combined_key <chr>, incidence_rate <dbl>,
#> #   case_fatality_ratio <dbl>, incident_rate <dbl>,
#> #   date <date>
```
…
```r
covid19_raw <- map_dfr(urls, read_covid19, .id = "date")
covid19_raw
```

```
#> # A tibble: 1,069,141 x 17
#>   date       province_state country_region confirmed deaths
#>   <chr>      <chr>          <chr>              <dbl>  <dbl>
#> 1 03-01-2020 Hubei          Mainland China     66907   2761
#> 2 03-01-2020 <NA>           South Korea         3736     17
#> 3 03-01-2020 <NA>           Italy               1694     34
#> 4 03-01-2020 Guangdong      Mainland China      1349      7
#> 5 03-01-2020 Henan          Mainland China      1272     22
#> 6 03-01-2020 Zhejiang       Mainland China      1205      1
#> # … with 1,069,135 more rows, and 12 more variables:
#> #   recovered <dbl>, latitude <dbl>, longitude <dbl>,
#> #   fips <dbl>, admin2 <chr>, lat <dbl>, long <dbl>,
#> #   active <dbl>, combined_key <chr>, incidence_rate <dbl>,
#> #   case_fatality_ratio <dbl>, incident_rate <dbl>
```
…
```r
covid19_bystate <- covid19_raw %>% 
  select(date, country_region:recovered) %>% 
  mutate(
    date = mdy(date),
    country_region = case_when(
      country_region == "Korea, South" ~ "South Korea",
      country_region == "Mainland China" ~ "China",
      TRUE ~ country_region)
  )
covid19_bystate
```

```
#> # A tibble: 1,069,141 x 5
#>   date       country_region confirmed deaths recovered
#>   <date>     <chr>              <dbl>  <dbl>     <dbl>
#> 1 2020-03-01 China              66907   2761     31536
#> 2 2020-03-01 South Korea         3736     17        30
#> 3 2020-03-01 Italy               1694     34        83
#> 4 2020-03-01 China               1349      7      1016
#> 5 2020-03-01 China               1272     22      1198
#> 6 2020-03-01 China               1205      1      1046
#> # … with 1,069,135 more rows
```
…
---

.left-column[
.center[[<img src="https://raw.githubusercontent.com/rstudio/hex-stickers/master/PNG/dplyr.png" width="60%">](https://dplyr.tidyverse.org)]
]
.right-column[

```r
covid19_byregion
```

```
#> # A tibble: 56,107 x 8
#>   country_region date       confirmed deaths recovered
#>   <chr>          <date>         <dbl>  <dbl>     <dbl>
#> 1 Afghanistan    2020-03-01         1      0         0
#> 2 Afghanistan    2020-03-02         1      0         0
#> 3 Afghanistan    2020-03-03         2      0         0
#> 4 Afghanistan    2020-03-04         4      0         0
#> 5 Afghanistan    2020-03-05         4      0         0
#> 6 Afghanistan    2020-03-06         4      0         0
#> # … with 56,101 more rows, and 3 more variables:
#> #   new_confirmed <dbl>, new_deaths <dbl>,
#> #   new_recovered <dbl>
```
…
.left-column[
.center[[<img src="https://raw.githubusercontent.com/rstudio/hex-stickers/master/PNG/tidyr.png" width="60%">](https://tidyr.tidyverse.org)]
]
.right-column[
`nest()` multiple columns into a .brown[list-column]

```r
covid19_lstcol <- covid19_byregion %>% 
  nest(data = -country_region)
covid19_lstcol
```

```
#> # A tibble: 236 x 2
#>   country_region      data                  
#>   <chr>               <list>                
#> 1 Afghanistan         <tibble[,7] [306 × 7]>
#> 2 Albania             <tibble[,7] [298 × 7]>
#> 3 Algeria             <tibble[,7] [306 × 7]>
#> 4 Andorra             <tibble[,7] [305 × 7]>
#> 5 Angola              <tibble[,7] [287 × 7]>
#> 6 Antigua and Barbuda <tibble[,7] [294 × 7]>
#> # … with 230 more rows
```
…
---

.left-column[
.center[[<img src="https://raw.githubusercontent.com/rstudio/hex-stickers/master/PNG/purrr.png" width="60%">](https://purrr.tidyverse.org)]
]
.right-column[
## Look inside the list-column

```r
covid19_au <- covid19_lstcol$data[[10]]
covid19_au
```

```
#> # A tibble: 306 x 7
#>   date       confirmed deaths recovered new_confirmed
#>   <date>         <dbl>  <dbl>     <dbl>         <dbl>
#> 1 2020-03-01        27      1        11            NA
#> 2 2020-03-02        30      1        11             3
#> 3 2020-03-03        39      1        11             9
#> 4 2020-03-04        52      2        11            13
#> 5 2020-03-05        55      2        21             3
#> 6 2020-03-06        60      2        21             5
#> # … with 300 more rows, and 2 more variables:
#> #   new_deaths <dbl>, new_recovered <dbl>
```
…
---

## Alternatively, `mutate()` with `map()` inside a tibble

```r
covid19_lstcol %>% 
  mutate(
    slopes = map(data, safely_extract_slope) %>% 
      map_dbl("result"))
```

```
#> # A tibble: 236 x 3
#>   country_region      data                   slopes
#>   <chr>               <list>                  <dbl>
#> 1 Afghanistan         <tibble[,7] [306 × 7]>  0.692
#> 2 Albania             <tibble[,7] [298 × 7]>  0.644
#> 3 Algeria             <tibble[,7] [306 × 7]>  0.533
#> 4 Andorra             <tibble[,7] [305 × 7]>  0.560
#> 5 Angola              <tibble[,7] [287 × 7]>  0.520
#> 6 Antigua and Barbuda <tibble[,7] [294 × 7]>  0.738
#> # … with 230 more rows
```
…
.left-column[
.center[[<img src="https://raw.githubusercontent.com/rstudio/hex-stickers/master/PNG/dplyr.png" width="60%">](https://dplyr.tidyverse.org)]
]
.right-column[
## `group_split()` splits tibble into chunks

```r
covid19_lst <- covid19_byregion %>% 
  group_by(country_region) %>% 
  group_split()
covid19_lst[[1]]
```

```
#> # A tibble: 306 x 8
#>   country_region date       confirmed deaths recovered
#>   <chr>          <date>         <dbl>  <dbl>     <dbl>
#> 1 Afghanistan    2020-03-01         1      0         0
#> 2 Afghanistan    2020-03-02         1      0         0
#> 3 Afghanistan    2020-03-03         2      0         0
#> 4 Afghanistan    2020-03-04         4      0         0
#> 5 Afghanistan    2020-03-05         4      0         0
#> 6 Afghanistan    2020-03-06         4      0         0
#> # … with 300 more rows, and 3 more variables:
#> #   new_confirmed <dbl>, new_deaths <dbl>,
#> #   new_recovered <dbl>
```
…
.left-column[
.center[[<img src="https://raw.githubusercontent.com/rstudio/hex-stickers/master/PNG/purrr.png" width="60%">](https://purrr.tidyverse.org)]
]
.right-column[
[{fs}](https://fs.r-lib.org) provides a cross-platform, uniform interface to file system operations.

```r
library(fs)
covid19_local <- map_dfr(
  dir_ls("data/covid19", glob = "*.csv"), read_csv)
covid19_local
```

```
#> # A tibble: 56,107 x 8
#>   country_region date       confirmed deaths recovered
#>   <chr>          <date>         <dbl>  <dbl>     <dbl>
#> 1 Afghanistan    2020-03-01         1      0         0
#> 2 Afghanistan    2020-03-02         1      0         0
#> 3 Afghanistan    2020-03-03         2      0         0
#> 4 Afghanistan    2020-03-04         4      0         0
#> 5 Afghanistan    2020-03-05         4      0         0
#> 6 Afghanistan    2020-03-06         4      0         0
#> # … with 56,101 more rows, and 3 more variables:
#> #   new_confirmed <dbl>, new_deaths <dbl>,
#> #   new_recovered <dbl>
```
…
