STATS 220
…
.left-column[
readr logo
]
.right-column[
## Reading comma delimited files

```r
library(readr) # or library(tidyverse)
pisa <- read_csv("data/pisa/pisa-student.csv", n_max = 2929621)
pisa
```

```
#> # A tibble: 2,929,621 x 22
#>    year country school_id student_id mother_educ father_educ
#>   <dbl> <chr>       <dbl>      <dbl> <lgl>       <lgl>      
#> 1  2000 ALB          1001          1 NA          NA         
#> 2  2000 ALB          1001          3 NA          NA         
#> 3  2000 ALB          1001          6 NA          NA         
#> 4  2000 ALB          1001          8 NA          NA         
#> 5  2000 ALB          1001         11 NA          NA         
#> 6  2000 ALB          1001         12 NA          NA         
#> # … with 2,929,615 more rows, and 16 more variables:
#> #   gender <chr>, computer <lgl>, internet <chr>,
#> #   math <dbl>, read <dbl>, science <dbl>, stu_wgt <dbl>,
#> #   desk <chr>, room <chr>, dishwasher <chr>,
#> #   television <chr>, computer_n <chr>, car <chr>,
#> #   book <chr>, wealth <dbl>, escs <dbl>
```
…
```r
library(readxl)
time_use <- read_xlsx("data/time-use-oced.xlsx")
time_use
```

```
#> # A tibble: 461 x 3
#>   Country   Category  `Time (minutes)`
#>   <chr>     <chr>                <dbl>
#> 1 Australia Paid work             211.
#> 2 Austria   Paid work             280.
#> 3 Belgium   Paid work             194.
#> 4 Canada    Paid work             269.
#> 5 Denmark   Paid work             200.
#> 6 Estonia   Paid work             231.
#> # … with 455 more rows
```
…
