STATS 220
…
```r
sci_tbl0
```

```
#> # A tibble: 63 x 1
#>   dept   
#>   <chr>  
#> 1 Physics
#> 2 Physics
#> 3 Physics
#> 4 Physics
#> 5 Physics
#> 6 Physics
#> # … with 57 more rows
```
…
