…
``` r
library(scales)
library(tidyverse)
selected <- c("Australia", "Brazil", "Canada", "China", "France", "Germany", 
  "India", "Israel", "Italy", "Japan", "Korea, South", "New Zealand",
  "Spain", "Sweden", "United Kingdom", "US")
covid19 <- read_csv("data/covid19-daily-cases.csv") %>% 
  filter(country_region %in% selected)
covid19
```

    #> # A tibble: 1,452 x 3
    #>    country_region date       confirmed
    #>    <chr>          <date>         <dbl>
    #>  1 Australia      2020-03-01        27
    #>  2 Australia      2020-03-02        30
    #>  3 Australia      2020-03-03        39
    #>  4 Australia      2020-03-04        52
    #>  5 Australia      2020-03-05        55
    #>  6 Australia      2020-03-06        60
    #>  7 Australia      2020-03-07        63
    #>  8 Australia      2020-03-08        76
    #>  9 Australia      2020-03-09        91
    #> 10 Australia      2020-03-10       107
    #> # … with 1,442 more rows
…
1.  You may find one of [{dplyr}’s vector
    functions](https://dplyr.tidyverse.org/reference/index.html#section-vector-functions)
    useful.

</details>

<br>

``` r
covid19_cases
```

    #> # A tibble: 1,452 x 4
    #>    country_region date       confirmed new_cases
    #>    <chr>          <date>         <dbl>     <dbl>
    #>  1 Australia      2020-03-01        27        NA
    #>  2 Australia      2020-03-02        30        NA
    #>  3 Australia      2020-03-03        39        NA
    #>  4 Australia      2020-03-04        52        NA
    #>  5 Australia      2020-03-05        55        NA
    #>  6 Australia      2020-03-06        60        NA
    #>  7 Australia      2020-03-07        63        NA
    #>  8 Australia      2020-03-08        76        49
    #>  9 Australia      2020-03-09        91        61
    #> 10 Australia      2020-03-10       107        68
    #> # … with 1,442 more rows
…
    #> [1] 18871.79

### Question 2

Rename `country_region` to `country_region_bg`.

You should end up with a **tibble** called `covid19_bg`.

``` r
covid19_bg
```

    #> # A tibble: 1,452 x 4
    #>    country_region_bg date       confirmed new_cases
    #>    <chr>             <date>         <dbl>     <dbl>
    #>  1 Australia         2020-03-01        27        NA
    #>  2 Australia         2020-03-02        30        NA
    #>  3 Australia         2020-03-03        39        NA
    #>  4 Australia         2020-03-04        52        NA
    #>  5 Australia         2020-03-05        55        NA
    #>  6 Australia         2020-03-06        60        NA
    #>  7 Australia         2020-03-07        63        NA
    #>  8 Australia         2020-03-08        76        49
    #>  9 Australia         2020-03-09        91        61
    #> 10 Australia         2020-03-10       107        68
    #> # … with 1,442 more rows
…
