…
------------------------------------------------------------------------

In this lab exercise, you are going to work with a data set: villagers
for Animal Crossing - New Horizons as in `villagers.csv`. You shall use
the following code to start with this lab session:

``` r
library(tidyverse)
villagers <- read_csv("data/animal-crossing/villagers.csv")
villagers
```

    #> # A tibble: 391 x 11
    #>    row_n id     name  gender species birthday personality song  phrase
    #>    <dbl> <chr>  <chr> <chr>  <chr>   <chr>    <chr>       <chr> <chr> 
    #>  1     2 admir… Admi… male   bird    1-27     cranky      Stee… aye a…
    #>  2     3 agent… Agen… female squirr… 7-2      peppy       DJ K… sidek…
    #>  3     4 agnes  Agnes female pig     4-21     uchi        K.K.… snuff…
    #>  4     6 al     Al    male   gorilla 10-18    lazy        Stee… Ayyee…
    #>  5     7 alfon… Alfo… male   alliga… 6-9      lazy        Fore… it'sa…
    #>  6     8 alice  Alice female koala   8-19     normal      Surf… guvnor
    #>  7     9 alli   Alli  female alliga… 11-8     snooty      K.K.… graaa…
    #>  8    10 amelia Amel… female eagle   11-19    snooty      K.K.… eaglet
    #>  9    11 anabe… Anab… female anteat… 2-16     peppy       Aloh… snorty
    #> 10    13 ancho… Anch… male   bird    3-4      lazy        K.K.… chuurp
    #> # … with 381 more rows, and 2 more variables: full_id <chr>,
    #> #   url <chr>
…
