…
Add 3 new columns to `daily_aqi`:

1.  `aqi_cat`: divide `max_aqi` into 6 categories:
    -   0 to 50: Good
    -   51 to 100: Moderate
    -   101 to 150: Unhealthy for Sensitive
    -   151 to 200: Unhealthy
    -   201 to 300: Very Unhealthy
    -   301 and higher: Hazardous
2.  `month`: extract month of the year
3.  `mday`: extract day of the month

Print the newly created **tibble**.

    #> # A tibble: 365 x 6
    #>    date       location     max_aqi aqi_cat  month  mday
    #>    <date>     <chr>          <dbl> <fct>    <ord> <int>
    #>  1 2019-01-01 queen_street      36 Good     Jan       1
    #>  2 2019-01-02 queen_street      30 Good     Jan       2
    #>  3 2019-01-03 queen_street      35 Good     Jan       3
    #>  4 2019-01-04 queen_street      41 Good     Jan       4
    #>  5 2019-01-05 queen_street      54 Moderate Jan       5
    #>  6 2019-01-06 queen_street      48 Good     Jan       6
    #>  7 2019-01-07 queen_street      31 Good     Jan       7
    #>  8 2019-01-08 queen_street      31 Good     Jan       8
    #>  9 2019-01-09 queen_street      34 Good     Jan       9
    #> 10 2019-01-10 queen_street      40 Good     Jan      10
    #> # … with 355 more rows
…
