…
You should end up with a **tibble**, called `top50_horror`.

**NOTE:** the `Rank` column is of integers.

``` r
top50_horror <- tibble(
  Rank = seq_along(film_poster),
  Poster = film_poster,
  Movie = movie,
  Year = year,
  Rating = rating)
top50_horror
```

    #> # A tibble: 50 x 5
    #>     Rank Poster                          Movie             Year Rating
    #>    <int> <chr>                           <chr>            <dbl>  <dbl>
    #>  1     1 https://m.media-amazon.com/ima… Psycho            1960    8.5
    #>  2     2 https://m.media-amazon.com/ima… The Shining       1980    8.4
    #>  3     3 https://m.media-amazon.com/ima… Alien             1979    8.4
    #>  4     4 https://m.media-amazon.com/ima… Tumbbad           2018    8.3
    #>  5     5 https://m.media-amazon.com/ima… The Blue Elepha…  2014    8.2
    #>  6     6 https://m.media-amazon.com/ima… The Thing         1982    8.1
    #>  7     7 https://m.media-amazon.com/ima… What Ever Happe…  1962    8.1
    #>  8     8 https://m.media-amazon.com/ima… Les diaboliques   1955    8.1
    #>  9     9 https://m.media-amazon.com/ima… Das Cabinet des…  1920    8.1
    #> 10    10 https://m.media-amazon.com/ima… The Exorcist      1973    8  
    #> # … with 40 more rows
…
