…
### Question 1

Import all CSV files from the `data/aklbus2017`, with their unique
identifiers as `"path"`.

You should end up with a **tibble** called `aklbus`.

``` r
aklbus <- map_dfr(csv_files, read_csv, .id = "path")
aklbus
```

    #> # A tibble: 43,793 x 5
    #>    path                   delay stop.id stop.sequence route           
    #>    <chr>                  <dbl>   <dbl>         <dbl> <chr>           
    #>  1 data/aklbus2017/2017-…   150    5050            28 15401-201702141…
    #>  2 data/aklbus2017/2017-…    97    3093             6 83401-201702141…
    #>  3 data/aklbus2017/2017-…    50    4810            13 98105-201702141…
    #>  4 data/aklbus2017/2017-…    58    6838             5 36201-201702141…
    #>  5 data/aklbus2017/2017-…  -186    2745            11 37301-201702141…
    #>  6 data/aklbus2017/2017-…   183    2635            14 03301-201702141…
    #>  7 data/aklbus2017/2017-…  -144    3360             4 10001-201702141…
    #>  8 data/aklbus2017/2017-…  -151    2206            20 38011-201702141…
    #>  9 data/aklbus2017/2017-…   -46    2419            38 38011-201702141…
    #> 10 data/aklbus2017/2017-…  -513    6906            42 38012-201702141…
    #> # … with 43,783 more rows
…
You should end up with a **tibble** called `aklbus_time`.

``` r
aklbus_time <- aklbus %>% 
  mutate(
    route = str_extract(route, "\\d{5}"),
    datetime = str_extract(path, "\\d{4}-.*[^.csv]"),
    datetime = ymd_hm(datetime, tz = "Pacific/Auckland"),
    path = NULL
  ) %>% 
  relocate(datetime)
aklbus_time
```

    #> # A tibble: 43,793 x 5
    #>    datetime            delay stop.id stop.sequence route
    #>    <dttm>              <dbl>   <dbl>         <dbl> <chr>
    #>  1 2017-03-09 05:14:00   150    5050            28 15401
    #>  2 2017-03-09 05:14:00    97    3093             6 83401
    #>  3 2017-03-09 05:14:00    50    4810            13 98105
    #>  4 2017-03-09 05:14:00    58    6838             5 36201
    #>  5 2017-03-09 05:14:00  -186    2745            11 37301
    #>  6 2017-03-09 05:14:00   183    2635            14 03301
    #>  7 2017-03-09 05:14:00  -144    3360             4 10001
    #>  8 2017-03-09 05:14:00  -151    2206            20 38011
    #>  9 2017-03-09 05:14:00   -46    2419            38 38011
    #> 10 2017-03-09 05:14:00  -513    6906            42 38012
    #> # … with 43,783 more rows
…
You should end up with a **tibble** called `aklbus_ontime`.

``` r
aklbus_ontime <- aklbus_time %>% 
  mutate(ontime = between(delay, -5 * 60, 5 * 60)) %>% 
  group_by(route) %>% 
  summarise(ontime_prop = sum(ontime) / n()) %>% 
  arrange(ontime_prop)
aklbus_ontime
```

    #> # A tibble: 1,082 x 2
    #>    route ontime_prop
    #>    <chr>       <dbl>
    #>  1 00152           0
    #>  2 00154           0
    #>  3 00164           0
    #>  4 00170           0
    #>  5 00452           0
    #>  6 00553           0
    #>  7 00651           0
    #>  8 00652           0
    #>  9 00653           0
    #> 10 00660           0
    #> # … with 1,072 more rows
…
You should end up with a **list** of tibbles called `aklbus_lst`.

``` r
aklbus_lst <- aklbus_time %>% 
  filter(route %in% (aklbus_ontime %>% 
    filter(!ontime_prop %in% c(0, 1)) %>% pull(route))) %>% 
  group_by(route) %>% 
  group_split()
aklbus_lst[[220]]
```

    #> # A tibble: 32 x 5
    #>    datetime            delay stop.id stop.sequence route
    #>    <dttm>              <dbl>   <dbl>         <dbl> <chr>
    #>  1 2017-03-09 05:54:00     6    4935            13 06001
    #>  2 2017-03-09 06:04:00   154    4890            18 06001
    #>  3 2017-03-09 06:14:00    97    4872            27 06001
    #>  4 2017-03-09 06:14:00  -104    4904             2 06001
    #>  5 2017-03-09 06:24:00   208    4862            32 06001
    #>  6 2017-03-09 06:24:00   121    4908            14 06001
    #>  7 2017-03-09 06:34:00   802    4885            34 06001
    #>  8 2017-03-09 06:34:00   197    4890            18 06001
    #>  9 2017-03-09 06:34:00   -31    4904             2 06001
    #> 10 2017-03-09 06:45:00   907    5640            42 06001
    #> # … with 22 more rows
…
