…
You shall use the following code snippet (and **include them upfront in
your R file**) to start with this assignment:

``` r
library(lubridate)
library(tidyverse)
nycbikes18 <- read_csv("data/2018-citibike-tripdata.csv",
  locale = locale(tz = "America/New_York"))
nycbikes18
```

    #> # A tibble: 333,687 x 15
    #>    tripduration starttime           stoptime           
    #>           <dbl> <dttm>              <dttm>             
    #>  1          932 2018-01-01 02:06:17 2018-01-01 02:21:50
    #>  2          550 2018-01-01 12:06:18 2018-01-01 12:15:28
    #>  3          510 2018-01-01 12:06:56 2018-01-01 12:15:27
    #>  4          354 2018-01-01 14:53:10 2018-01-01 14:59:05
    #>  5          250 2018-01-01 17:34:30 2018-01-01 17:38:40
    #>  6          613 2018-01-01 22:05:05 2018-01-01 22:15:19
    #>  7          290 2018-01-02 12:13:51 2018-01-02 12:18:42
    #>  8          381 2018-01-02 12:50:03 2018-01-02 12:56:24
    #>  9          318 2018-01-02 13:55:58 2018-01-02 14:01:16
    #> 10         1852 2018-01-02 16:55:29 2018-01-02 17:26:22
    #> # … with 333,677 more rows, and 12 more variables:
    #> #   start_station_id <dbl>, start_station_name <chr>,
    #> #   start_station_latitude <dbl>, start_station_longitude <dbl>,
    #> #   end_station_id <dbl>, end_station_name <chr>,
    #> #   end_station_latitude <dbl>, end_station_longitude <dbl>,
    #> #   bikeid <dbl>, usertype <chr>, birth_year <dbl>, gender <dbl>
…
Find **the most frequently used bike**’s data records.

You should end up with a **tibble** called `top_bike_trips`.

``` r
most_used_bike <- nycbikes18 %>% 
  count(bikeid, sort = TRUE) %>% 
  pull(bikeid) %>% 
  first()
top_bike_trips <- nycbikes18 %>% 
  filter(bikeid == most_used_bike)
top_bike_trips
```

    #> # A tibble: 825 x 15
    #>    tripduration starttime           stoptime           
    #>           <dbl> <dttm>              <dttm>             
    #>  1          520 2018-01-03 13:06:21 2018-01-03 13:15:01
    #>  2          232 2018-01-03 17:01:21 2018-01-03 17:05:14
    #>  3          315 2018-01-14 15:08:14 2018-01-14 15:13:30
    #>  4          266 2018-01-23 14:57:30 2018-01-23 15:01:57
    #>  5          162 2018-01-24 17:01:10 2018-01-24 17:03:53
    #>  6          150 2018-01-25 18:26:58 2018-01-25 18:29:29
    #>  7          272 2018-01-03 08:49:11 2018-01-03 08:53:43
    #>  8          315 2018-01-20 14:06:28 2018-01-20 14:11:44
    #>  9          322 2018-01-02 15:43:42 2018-01-02 15:49:04
    #> 10          251 2018-01-10 17:48:03 2018-01-10 17:52:14
    #> # … with 815 more rows, and 12 more variables:
    #> #   start_station_id <dbl>, start_station_name <chr>,
    #> #   start_station_latitude <dbl>, start_station_longitude <dbl>,
    #> #   end_station_id <dbl>, end_station_name <chr>,
    #> #   end_station_latitude <dbl>, end_station_longitude <dbl>,
    #> #   bikeid <dbl>, usertype <chr>, birth_year <dbl>, gender <dbl>
…
``` r
hourly_ntrips <- nycbikes18 %>% 
  mutate(starttime = floor_date(starttime, "1 hour")) %>% 
  group_by(starttime, usertype) %>% 
  summarise(ntrips = n()) %>% 
  ungroup() %>% 
  mutate(
    startdate = as_date(starttime),
    starthour = hour(starttime),
    startwday = wday(starttime, label = TRUE, week_start = 1)
  )
hourly_ntrips
```

    #> # A tibble: 11,739 x 6
    #>    starttime           usertype  ntrips startdate  starthour startwday
    #>    <dttm>              <chr>      <int> <date>         <int> <ord>    
    #>  1 2018-01-01 00:00:00 Subscrib…      1 2018-01-01         0 Mon      
    #>  2 2018-01-01 01:00:00 Subscrib…      3 2018-01-01         1 Mon      
    #>  3 2018-01-01 02:00:00 Subscrib…      3 2018-01-01         2 Mon      
    #>  4 2018-01-01 03:00:00 Subscrib…      7 2018-01-01         3 Mon      
    #>  5 2018-01-01 04:00:00 Subscrib…      1 2018-01-01         4 Mon      
    #>  6 2018-01-01 06:00:00 Subscrib…      2 2018-01-01         6 Mon      
    #>  7 2018-01-01 08:00:00 Subscrib…      5 2018-01-01         8 Mon      
    #>  8 2018-01-01 09:00:00 Subscrib…      2 2018-01-01         9 Mon      
    #>  9 2018-01-01 10:00:00 Subscrib…      4 2018-01-01        10 Mon      
    #> 10 2018-01-01 11:00:00 Subscrib…      3 2018-01-01        11 Mon      
    #> # … with 11,729 more rows
…
