…
### Question 1

Read `data/2018-citibike-tripdata.csv` into R. You should end up with a
**tibble** called `nycbikes18_raw`.

``` r
nycbikes18_raw <- read_csv("data/2018-citibike-tripdata.csv")
nycbikes18_raw
```

    #> # A tibble: 333,687 x 15
    #>    tripduration starttime           stoptime           
    #>           <dbl> <dttm>              <dttm>             
    #>  1          932 2018-01-01 07:06:17 2018-01-01 07:21:50
    #>  2          550 2018-01-01 17:06:18 2018-01-01 17:15:28
    #>  3          510 2018-01-01 17:06:56 2018-01-01 17:15:27
    #>  4          354 2018-01-01 19:53:10 2018-01-01 19:59:05
    #>  5          250 2018-01-01 22:34:30 2018-01-01 22:38:40
    #>  6          613 2018-01-02 03:05:05 2018-01-02 03:15:19
    #>  7          290 2018-01-02 17:13:51 2018-01-02 17:18:42
    #>  8          381 2018-01-02 17:50:03 2018-01-02 17:56:24
    #>  9          318 2018-01-02 18:55:58 2018-01-02 19:01:16
    #> 10         1852 2018-01-02 21:55:29 2018-01-02 22:26:22
    #> # … with 333,677 more rows, and 12 more variables:
    #> #   start_station_id <dbl>, start_station_name <chr>,
    #> #   start_station_latitude <dbl>, start_station_longitude <dbl>,
    #> #   end_station_id <dbl>, end_station_name <chr>,
    #> #   end_station_latitude <dbl>, end_station_longitude <dbl>,
    #> #   bikeid <dbl>, usertype <chr>, birth_year <dbl>, gender <dbl>
…
From the above plot `p1`, it is noted that there are a few trips done by
users who were born before 1900. These users possibly don’t want to
reveal their ages. You need to remove these observations with
`birth_year` greater than `1900` for the rest of the analysis. You
should end up with a **tibble** called `nycbikes18`.

``` r
#nycbikes18 <- nycbikes18_raw[nycbikes18_raw$birth_year > 1900,]
nycbikes18 <- nycbikes18_raw %>% 
  filter(birth_year > 1900)
nycbikes18
```

    #> # A tibble: 333,557 x 15
    #>    tripduration starttime           stoptime           
    #>           <dbl> <dttm>              <dttm>             
    #>  1          932 2018-01-01 07:06:17 2018-01-01 07:21:50
    #>  2          550 2018-01-01 17:06:18 2018-01-01 17:15:28
    #>  3          510 2018-01-01 17:06:56 2018-01-01 17:15:27
    #>  4          354 2018-01-01 19:53:10 2018-01-01 19:59:05
    #>  5          250 2018-01-01 22:34:30 2018-01-01 22:38:40
    #>  6          613 2018-01-02 03:05:05 2018-01-02 03:15:19
    #>  7          290 2018-01-02 17:13:51 2018-01-02 17:18:42
    #>  8          381 2018-01-02 17:50:03 2018-01-02 17:56:24
    #>  9          318 2018-01-02 18:55:58 2018-01-02 19:01:16
    #> 10         1852 2018-01-02 21:55:29 2018-01-02 22:26:22
    #> # … with 333,547 more rows, and 12 more variables:
    #> #   start_station_id <dbl>, start_station_name <chr>,
    #> #   start_station_latitude <dbl>, start_station_longitude <dbl>,
    #> #   end_station_id <dbl>, end_station_name <chr>,
    #> #   end_station_latitude <dbl>, end_station_longitude <dbl>,
    #> #   bikeid <dbl>, usertype <chr>, birth_year <dbl>, gender <dbl>
…
