05-fcts-dates.R
…
set.seed(220)
scores_sim <- round(
  rnorm(309, mean = 70, sd = 10),
  digits = 2)
scores_tbl <- tibble(score = scores_sim)
scores_tbl

## # A tibble: 309 x 1
##    score
##    <dbl>
##  1  58.2
##  2  80.1
##  3  51.4
##  4  80.5
##  5  63.8
##  6  51.0
##  7  60.3
##  8  71.7
##  9  66.3
## 10  59.4
## #  with 299 more rows
…
scores_tbl %>% 
  mutate(
    range = cut(score, breaks = c(0, seq(39, 89, by = 5), 100), 
      include.lowest = TRUE))

## # A tibble: 309 x 2
##    score range  
##    <dbl> <fct>  
##  1  58.2 (54,59]
##  2  80.1 (79,84]
##  3  51.4 (49,54]
##  4  80.5 (79,84]
##  5  63.8 (59,64]
##  6  51.0 (49,54]
##  7  60.3 (59,64]
##  8  71.7 (69,74]
##  9  66.3 (64,69]
## 10  59.4 (59,64]
## #  with 299 more rows

scores_more <- scores_tbl %>% 
  mutate(
    range = cut(score, breaks = c(0, seq(39, 89, by = 5), 100), 
      include.lowest = TRUE),
    grade = fct_recode(range,
      "D-" = "[0,39]", "D" = "(39,44]", "D+" = "(44,49]",
      "C-" = "(49,54]", "C" = "(54,59]", "C+" = "(59,64]",
      "B-" = "(64,69]", "B" = "(69,74]", "B+" = "(74,79]",
      "A-" = "(79,84]", "A" = "(84,89]", "A+" = "(89,100]"))
scores_more

## # A tibble: 309 x 3
##    score range   grade
##    <dbl> <fct>   <fct>
##  1  58.2 (54,59] C    
##  2  80.1 (79,84] A-   
##  3  51.4 (49,54] C-   
##  4  80.5 (79,84] A-   
##  5  63.8 (59,64] C+   
##  6  51.0 (49,54] C-   
##  7  60.3 (59,64] C+   
##  8  71.7 (69,74] B    
##  9  66.3 (64,69] B-   
## 10  59.4 (59,64] C+   
## #  with 299 more rows
…
